<?xml version="1.0" encoding="utf-8"?>
<!-- Generated by IcoMoon.io -->
<!DOCTYPE svg PUBLIC "-//W3C//DTD SVG 1.1//EN" "http://www.w3.org/Graphics/SVG/1.1/DTD/svg11.dtd">
<svg version="1.1" xmlns="http://www.w3.org/2000/svg" xmlns:xlink="http://www.w3.org/1999/xlink" width="32" height="32" viewBox="0 0 32 32">
<g id="icomoon-ignore">
</g>
<path d="M6.395 7.585h2.495l5.907 16.722h-2.283l-1.449-4.348h-7.221l-1.53 4.348h-2.093l6.174-16.722zM4.435 18.24h6.040l-2.926-8.832-3.114 8.832zM14.636 15.099h5.395v1.719h-5.395v-1.719zM20.192 22.508l8.402-13.206h-8.079v-1.719h10.334v1.904l-8.295 13.102h8.51v1.717h-10.872z" fill="#000000"></path>
</svg>
